{
  "name": "accelerated-design",
  "homepage": "https://bitbucket.org/interpersonal-frequency/accelerated-design/src/main",
  "repository": "https://bitbucket.org/interpersonal-frequency/accelerated-design.git",
  "structure": [
    {
      "name": "base",
      "description": "Base-level components used in virtually every higher-level component"
    },
    {
      "name": "atoms",
      "description": "Small components commonly used in higher-level components"
    },
    {
      "name": "molecules",
      "description": "Medium-sized components used as building blocks within a larger component"
    },
    {
      "name": "organisms",
      "description": "Large components that compose smaller components into a cohesive UI"
    },
    {
      "name": "templates",
      "description": "Collection of layout templates."
    },
    {
      "name": "pages",
      "description": "Entire pages built using smaller components"
    }
  ],
  "variants": [
    {
      "platform": "drupal",
      "structureImplementations": [
        {
          "name": "base",
          "directory": "./components/00-base"
        },
        {
          "name": "atoms",
          "directory": "./components/01-atoms"
        },
        {
          "name": "molecules",
          "directory": "./components/02-molecules"
        },
        {
          "name": "organisms",
          "directory": "./components/03-organisms"
        },
        {
          "name": "templates",
          "directory": "./components/04-templates"
        },
        {
          "name": "pages",
          "directory": "./components/05-pages"
        }
      ],
      "directories": [
        {
          "name": "defaults",
          "path": "./components/00-base/00-defaults",
          "destinationPath": "./components/00-base/00-defaults",
          "description": "Contains scss files with global defaults"
        },
        {
          "name": "template-components",
          "path": "./components/04-templates",
          "destinationPath": "./components/04-templates",
          "description": "Contains default templates and layouts that are required"
        },
        {
          "name": "templates",
          "path": "./templates",
          "destinationPath": "./templates",
          "description": "Contains Drupal templates"
        }
      ],
      "files": [
        {
          "name": "style",
          "path": "./components/style.scss",
          "destinationPath": "./components/style.scss",
          "description": "Primary style scss file"
        }
      ],
      "components": [
        {
          "name": "01-colors",
          "structure": "base",
          "required": true
        },
        {
          "name": "02-motion",
          "structure": "base",
          "required": true
        },
        {
          "name": "03-site",
          "structure": "base",
          "required": true
        },
        {
          "name": "buttons",
          "structure": "atoms",
          "required": true
        },
        {
          "name": "forms",
          "structure": "atoms",
          "required": true
        },
        {
          "name": "images",
          "structure": "atoms",
          "required": true
        },
        {
          "name": "links",
          "structure": "atoms",
          "required": true
        },
        {
          "name": "lists",
          "structure": "atoms",
          "required": true
        },
        {
          "name": "tables",
          "structure": "atoms",
          "required": true
        },
        {
          "name": "text",
          "structure": "atoms",
          "required": true
        },
        {
          "name": "video",
          "structure": "atoms",
          "required": true
        },
        {
          "name": "card",
          "structure": "molecules"
        },
        {
          "name": "cta",
          "structure": "molecules"
        },
        {
          "name": "menus",
          "structure": "molecules",
          "required": true
        },
        {
          "name": "pager",
          "structure": "molecules",
          "required": true
        },
        {
          "name": "status",
          "structure": "molecules",
          "required": true
        },
        {
          "name": "tabs",
          "structure": "molecules"
        },
        {
          "name": "grid",
          "structure": "organisms",
          "required": true
        },
        {
          "name": "site",
          "structure": "organisms",
          "required": true
        },
        {
          "name": "placeholder",
          "structure": "templates"
        },
        {
          "name": "content-types",
          "structure": "pages"
        },
        {
          "name": "landing-pages",
          "structure": "pages"
        }
      ]
    }
  ]
}
